Dplyr and Writing Scripts
…
Package ‘dplyr’

A Grammar of Data Manipulation

Description A fast, consistent tool for working with data frame like objects, both in memory and out of memory.

#install.packages("nycflights13")
#install.packages("tidyverse")

library(tidyverse)
library(nycflights13)

nycflights13::flights #This data frame contains all 336,776 flights that departed from New York City in 2013

## # A tibble: 336,776 x 19
##     year month   day dep_time sched_dep_time dep_delay arr_time
##    <int> <int> <int>    <int>          <int>     <dbl>    <int>
##  1  2013     1     1      517            515        2.      830
##  2  2013     1     1      533            529        4.      850
##  3  2013     1     1      542            540        2.      923
##  4  2013     1     1      544            545       -1.     1004
##  5  2013     1     1      554            600       -6.      812
##  6  2013     1     1      554            558       -4.      740
##  7  2013     1     1      555            600       -5.      913
##  8  2013     1     1      557            600       -3.      709
##  9  2013     1     1      557            600       -3.      838
## 10  2013     1     1      558            600       -2.      753
## # ... with 336,766 more rows, and 12 more variables: sched_arr_time <int>,
## #   arr_delay <dbl>, carrier <chr>, flight <int>, tailnum <chr>,
## #   origin <chr>, dest <chr>, air_time <dbl>, distance <dbl>, hour <dbl>,
## #   minute <dbl>, time_hour <dttm>

flights

## # A tibble: 336,776 x 19
##     year month   day dep_time sched_dep_time dep_delay arr_time
##    <int> <int> <int>    <int>          <int>     <dbl>    <int>
##  1  2013     1     1      517            515        2.      830
##  2  2013     1     1      533            529        4.      850
##  3  2013     1     1      542            540        2.      923
##  4  2013     1     1      544            545       -1.     1004
##  5  2013     1     1      554            600       -6.      812
##  6  2013     1     1      554            558       -4.      740
##  7  2013     1     1      555            600       -5.      913
##  8  2013     1     1      557            600       -3.      709
##  9  2013     1     1      557            600       -3.      838
## 10  2013     1     1      558            600       -2.      753
## # ... with 336,766 more rows, and 12 more variables: sched_arr_time <int>,
## #   arr_delay <dbl>, carrier <chr>, flight <int>, tailnum <chr>,
## #   origin <chr>, dest <chr>, air_time <dbl>, distance <dbl>, hour <dbl>,
## #   minute <dbl>, time_hour <dttm>
…
Reorder the rows (arrange()).

Pick variables by their names (select()).

Create new variables with functions of existing variables (mutate()).

Collapse many values down to a single summary (summarise()).

Filter Rows with filter()

filter() allows you to subset observations based on their values. The first argument is the name of the data frame. The second and subsequent arguments are the expressions that filter the data frame. For example, we can select all flights on January 1st with:

filter(flights, month == 1, day == 1)

## # A tibble: 842 x 19
##     year month   day dep_time sched_dep_time dep_delay arr_time
##    <int> <int> <int>    <int>          <int>     <dbl>    <int>
##  1  2013     1     1      517            515        2.      830
##  2  2013     1     1      533            529        4.      850
##  3  2013     1     1      542            540        2.      923
##  4  2013     1     1      544            545       -1.     1004
##  5  2013     1     1      554            600       -6.      812
##  6  2013     1     1      554            558       -4.      740
##  7  2013     1     1      555            600       -5.      913
##  8  2013     1     1      557            600       -3.      709
##  9  2013     1     1      557            600       -3.      838
## 10  2013     1     1      558            600       -2.      753
## # ... with 832 more rows, and 12 more variables: sched_arr_time <int>,
## #   arr_delay <dbl>, carrier <chr>, flight <int>, tailnum <chr>,
## #   origin <chr>, dest <chr>, air_time <dbl>, distance <dbl>, hour <dbl>,
## #   minute <dbl>, time_hour <dttm>

jan1 <- filter(flights, month == 1, day == 1)
jan1

## # A tibble: 842 x 19
##     year month   day dep_time sched_dep_time dep_delay arr_time
##    <int> <int> <int>    <int>          <int>     <dbl>    <int>
##  1  2013     1     1      517            515        2.      830
##  2  2013     1     1      533            529        4.      850
##  3  2013     1     1      542            540        2.      923
##  4  2013     1     1      544            545       -1.     1004
##  5  2013     1     1      554            600       -6.      812
##  6  2013     1     1      554            558       -4.      740
##  7  2013     1     1      555            600       -5.      913
##  8  2013     1     1      557            600       -3.      709
##  9  2013     1     1      557            600       -3.      838
## 10  2013     1     1      558            600       -2.      753
## # ... with 832 more rows, and 12 more variables: sched_arr_time <int>,
## #   arr_delay <dbl>, carrier <chr>, flight <int>, tailnum <chr>,
## #   origin <chr>, dest <chr>, air_time <dbl>, distance <dbl>, hour <dbl>,
## #   minute <dbl>, time_hour <dttm>
…
#Computers use finite precision arithmetic (they obviously can’t store an infinite number of digits!) so remember that every number you see is an approximation. Instead of relying on ==, use near():
near(sqrt(2) ^ 2,  2)

## [1] TRUE

near(1 / 49 * 49, 1)

## [1] TRUE

Logical Operators

# The following code finds all flights that departed in November or December:
filter(flights, month == 11 | month == 12)

## # A tibble: 55,403 x 19
##     year month   day dep_time sched_dep_time dep_delay arr_time
##    <int> <int> <int>    <int>          <int>     <dbl>    <int>
##  1  2013    11     1        5           2359        6.      352
##  2  2013    11     1       35           2250      105.      123
##  3  2013    11     1      455            500       -5.      641
##  4  2013    11     1      539            545       -6.      856
##  5  2013    11     1      542            545       -3.      831
##  6  2013    11     1      549            600      -11.      912
##  7  2013    11     1      550            600      -10.      705
##  8  2013    11     1      554            600       -6.      659
##  9  2013    11     1      554            600       -6.      826
## 10  2013    11     1      554            600       -6.      749
## # ... with 55,393 more rows, and 12 more variables: sched_arr_time <int>,
## #   arr_delay <dbl>, carrier <chr>, flight <int>, tailnum <chr>,
## #   origin <chr>, dest <chr>, air_time <dbl>, distance <dbl>, hour <dbl>,
## #   minute <dbl>, time_hour <dttm>

nov_dec <- filter(flights, month %in% c(11, 12))
nov_dec

## # A tibble: 55,403 x 19
##     year month   day dep_time sched_dep_time dep_delay arr_time
##    <int> <int> <int>    <int>          <int>     <dbl>    <int>
##  1  2013    11     1        5           2359        6.      352
##  2  2013    11     1       35           2250      105.      123
##  3  2013    11     1      455            500       -5.      641
##  4  2013    11     1      539            545       -6.      856
##  5  2013    11     1      542            545       -3.      831
##  6  2013    11     1      549            600      -11.      912
##  7  2013    11     1      550            600      -10.      705
##  8  2013    11     1      554            600       -6.      659
##  9  2013    11     1      554            600       -6.      826
## 10  2013    11     1      554            600       -6.      749
## # ... with 55,393 more rows, and 12 more variables: sched_arr_time <int>,
## #   arr_delay <dbl>, carrier <chr>, flight <int>, tailnum <chr>,
## #   origin <chr>, dest <chr>, air_time <dbl>, distance <dbl>, hour <dbl>,
## #   minute <dbl>, time_hour <dttm>

# Find flights that weren’t delayed (on arrival or departure) by more than two hours, you could use either of the following two filters:
filter(flights, !(arr_delay > 120 | dep_delay > 120))

## # A tibble: 316,050 x 19
##     year month   day dep_time sched_dep_time dep_delay arr_time
##    <int> <int> <int>    <int>          <int>     <dbl>    <int>
##  1  2013     1     1      517            515        2.      830
##  2  2013     1     1      533            529        4.      850
##  3  2013     1     1      542            540        2.      923
##  4  2013     1     1      544            545       -1.     1004
##  5  2013     1     1      554            600       -6.      812
##  6  2013     1     1      554            558       -4.      740
##  7  2013     1     1      555            600       -5.      913
##  8  2013     1     1      557            600       -3.      709
##  9  2013     1     1      557            600       -3.      838
## 10  2013     1     1      558            600       -2.      753
## # ... with 316,040 more rows, and 12 more variables: sched_arr_time <int>,
## #   arr_delay <dbl>, carrier <chr>, flight <int>, tailnum <chr>,
## #   origin <chr>, dest <chr>, air_time <dbl>, distance <dbl>, hour <dbl>,
## #   minute <dbl>, time_hour <dttm>

filter(flights, arr_delay <= 120, dep_delay <= 120)

## # A tibble: 316,050 x 19
##     year month   day dep_time sched_dep_time dep_delay arr_time
##    <int> <int> <int>    <int>          <int>     <dbl>    <int>
##  1  2013     1     1      517            515        2.      830
##  2  2013     1     1      533            529        4.      850
##  3  2013     1     1      542            540        2.      923
##  4  2013     1     1      544            545       -1.     1004
##  5  2013     1     1      554            600       -6.      812
##  6  2013     1     1      554            558       -4.      740
##  7  2013     1     1      555            600       -5.      913
##  8  2013     1     1      557            600       -3.      709
##  9  2013     1     1      557            600       -3.      838
## 10  2013     1     1      558            600       -2.      753
## # ... with 316,040 more rows, and 12 more variables: sched_arr_time <int>,
## #   arr_delay <dbl>, carrier <chr>, flight <int>, tailnum <chr>,
## #   origin <chr>, dest <chr>, air_time <dbl>, distance <dbl>, hour <dbl>,
## #   minute <dbl>, time_hour <dttm>
…
filter(df, is.na(x) | x > 1)

## # A tibble: 2 x 1
##       x
##   <dbl>
## 1   NA 
## 2    3.

filter() exercises

# 1. Find all flights that:
#    1. Had an arrival delay of two or more hours
filter(flights, (arr_delay > 120))

## # A tibble: 10,034 x 19
##     year month   day dep_time sched_dep_time dep_delay arr_time
##    <int> <int> <int>    <int>          <int>     <dbl>    <int>
##  1  2013     1     1      811            630      101.     1047
##  2  2013     1     1      848           1835      853.     1001
##  3  2013     1     1      957            733      144.     1056
##  4  2013     1     1     1114            900      134.     1447
##  5  2013     1     1     1505           1310      115.     1638
##  6  2013     1     1     1525           1340      105.     1831
##  7  2013     1     1     1549           1445       64.     1912
##  8  2013     1     1     1558           1359      119.     1718
##  9  2013     1     1     1732           1630       62.     2028
## 10  2013     1     1     1803           1620      103.     2008
## # ... with 10,024 more rows, and 12 more variables: sched_arr_time <int>,
## #   arr_delay <dbl>, carrier <chr>, flight <int>, tailnum <chr>,
## #   origin <chr>, dest <chr>, air_time <dbl>, distance <dbl>, hour <dbl>,
## #   minute <dbl>, time_hour <dttm>

#    2. Flew to Houston (IAH or HOU)
filter(flights, (dest == "IAH" | dest == "HOU"))

## # A tibble: 9,313 x 19
##     year month   day dep_time sched_dep_time dep_delay arr_time
##    <int> <int> <int>    <int>          <int>     <dbl>    <int>
##  1  2013     1     1      517            515        2.      830
##  2  2013     1     1      533            529        4.      850
##  3  2013     1     1      623            627       -4.      933
##  4  2013     1     1      728            732       -4.     1041
##  5  2013     1     1      739            739        0.     1104
##  6  2013     1     1      908            908        0.     1228
##  7  2013     1     1     1028           1026        2.     1350
##  8  2013     1     1     1044           1045       -1.     1352
##  9  2013     1     1     1114            900      134.     1447
## 10  2013     1     1     1205           1200        5.     1503
## # ... with 9,303 more rows, and 12 more variables: sched_arr_time <int>,
## #   arr_delay <dbl>, carrier <chr>, flight <int>, tailnum <chr>,
## #   origin <chr>, dest <chr>, air_time <dbl>, distance <dbl>, hour <dbl>,
## #   minute <dbl>, time_hour <dttm>

#    3. Were operated by United, American, or Delta
filter(flights, (carrier %in% c("UA","AA","DL")))

## # A tibble: 139,504 x 19
##     year month   day dep_time sched_dep_time dep_delay arr_time
##    <int> <int> <int>    <int>          <int>     <dbl>    <int>
##  1  2013     1     1      517            515        2.      830
##  2  2013     1     1      533            529        4.      850
##  3  2013     1     1      542            540        2.      923
##  4  2013     1     1      554            600       -6.      812
##  5  2013     1     1      554            558       -4.      740
##  6  2013     1     1      558            600       -2.      753
##  7  2013     1     1      558            600       -2.      924
##  8  2013     1     1      558            600       -2.      923
##  9  2013     1     1      559            600       -1.      941
## 10  2013     1     1      559            600       -1.      854
## # ... with 139,494 more rows, and 12 more variables: sched_arr_time <int>,
## #   arr_delay <dbl>, carrier <chr>, flight <int>, tailnum <chr>,
## #   origin <chr>, dest <chr>, air_time <dbl>, distance <dbl>, hour <dbl>,
## #   minute <dbl>, time_hour <dttm>

#    4. Departed in summer (July, August, and September)
filter(flights, (month == 7 | month == 8 | month == 9 ))

## # A tibble: 86,326 x 19
##     year month   day dep_time sched_dep_time dep_delay arr_time
##    <int> <int> <int>    <int>          <int>     <dbl>    <int>
##  1  2013     7     1        1           2029      212.      236
##  2  2013     7     1        2           2359        3.      344
##  3  2013     7     1       29           2245      104.      151
##  4  2013     7     1       43           2130      193.      322
##  5  2013     7     1       44           2150      174.      300
##  6  2013     7     1       46           2051      235.      304
##  7  2013     7     1       48           2001      287.      308
##  8  2013     7     1       58           2155      183.      335
##  9  2013     7     1      100           2146      194.      327
## 10  2013     7     1      100           2245      135.      337
## # ... with 86,316 more rows, and 12 more variables: sched_arr_time <int>,
## #   arr_delay <dbl>, carrier <chr>, flight <int>, tailnum <chr>,
## #   origin <chr>, dest <chr>, air_time <dbl>, distance <dbl>, hour <dbl>,
## #   minute <dbl>, time_hour <dttm>

#    5. Arrived more than two hours late, but didn’t leave late
filter(flights, (arr_delay > 120 & dep_delay <= 0))

## # A tibble: 29 x 19
##     year month   day dep_time sched_dep_time dep_delay arr_time
##    <int> <int> <int>    <int>          <int>     <dbl>    <int>
##  1  2013     1    27     1419           1420       -1.     1754
##  2  2013    10     7     1350           1350        0.     1736
##  3  2013    10     7     1357           1359       -2.     1858
##  4  2013    10    16      657            700       -3.     1258
##  5  2013    11     1      658            700       -2.     1329
##  6  2013     3    18     1844           1847       -3.       39
##  7  2013     4    17     1635           1640       -5.     2049
##  8  2013     4    18      558            600       -2.     1149
##  9  2013     4    18      655            700       -5.     1213
## 10  2013     5    22     1827           1830       -3.     2217
## # ... with 19 more rows, and 12 more variables: sched_arr_time <int>,
## #   arr_delay <dbl>, carrier <chr>, flight <int>, tailnum <chr>,
## #   origin <chr>, dest <chr>, air_time <dbl>, distance <dbl>, hour <dbl>,
## #   minute <dbl>, time_hour <dttm>

#    6. Were delayed by at least an hour, but made up over 30 minutes in flight

#    7. Departed between midnight and 6am (inclusive)
filter(flights, (dep_time >= 1 & dep_time <= 600))   

## # A tibble: 9,344 x 19
##     year month   day dep_time sched_dep_time dep_delay arr_time
##    <int> <int> <int>    <int>          <int>     <dbl>    <int>
##  1  2013     1     1      517            515        2.      830
##  2  2013     1     1      533            529        4.      850
##  3  2013     1     1      542            540        2.      923
##  4  2013     1     1      544            545       -1.     1004
##  5  2013     1     1      554            600       -6.      812
##  6  2013     1     1      554            558       -4.      740
##  7  2013     1     1      555            600       -5.      913
##  8  2013     1     1      557            600       -3.      709
##  9  2013     1     1      557            600       -3.      838
## 10  2013     1     1      558            600       -2.      753
## # ... with 9,334 more rows, and 12 more variables: sched_arr_time <int>,
## #   arr_delay <dbl>, carrier <chr>, flight <int>, tailnum <chr>,
## #   origin <chr>, dest <chr>, air_time <dbl>, distance <dbl>, hour <dbl>,
## #   minute <dbl>, time_hour <dttm>

# 2. Another useful dplyr filtering helper is between(). What does it do? Can you use it to simplify the code needed to answer the previous challenges?

# 3. How many flights have a missing dep_time? What other variables are missing? What might these rows represent?

# 4. Why is NA ^ 0 not missing? Why is NA | TRUE not missing? Why is FALSE & NA not missing? Can you figure out the general rule? (NA * 0 is a tricky counterexample!)

Arrange rows with arrange()

arrange() works similarly to filter() except that instead of selecting rows, it changes their order. It takes a data frame and a set of column names (or more complicated expressions) to order by.

# If you provide more than one column name, each additional column will be used to break ties in the values of preceding columns:
arrange(flights, year, month, day)

## # A tibble: 336,776 x 19
##     year month   day dep_time sched_dep_time dep_delay arr_time
##    <int> <int> <int>    <int>          <int>     <dbl>    <int>
##  1  2013     1     1      517            515        2.      830
##  2  2013     1     1      533            529        4.      850
##  3  2013     1     1      542            540        2.      923
##  4  2013     1     1      544            545       -1.     1004
##  5  2013     1     1      554            600       -6.      812
##  6  2013     1     1      554            558       -4.      740
##  7  2013     1     1      555            600       -5.      913
##  8  2013     1     1      557            600       -3.      709
##  9  2013     1     1      557            600       -3.      838
## 10  2013     1     1      558            600       -2.      753
## # ... with 336,766 more rows, and 12 more variables: sched_arr_time <int>,
## #   arr_delay <dbl>, carrier <chr>, flight <int>, tailnum <chr>,
## #   origin <chr>, dest <chr>, air_time <dbl>, distance <dbl>, hour <dbl>,
## #   minute <dbl>, time_hour <dttm>
…
