Exploratory Data Analysis in R
…
Two categorical variables

To visualize covariation between categorical variables, you will need to count the number of observations for each combination.

# display data as table
diamonds %>% 
  count(color, cut)

## # A tibble: 35 x 3
##    color cut           n
##    <ord> <ord>     <int>
##  1 D     Fair        163
##  2 D     Good        662
##  3 D     Very Good  1513
##  4 D     Premium    1603
##  5 D     Ideal      2834
##  6 E     Fair        224
##  7 E     Good        933
##  8 E     Very Good  2400
##  9 E     Premium    2337
## 10 E     Ideal      3903
## # ... with 25 more rows
…
