Data import and Tidy-ing
…
FAO1 <- read_csv("FAOSTAT_data.csv")

## Parsed with column specification:
## cols(
##   Country = col_character(),
##   Element = col_character(),
##   Item = col_character(),
##   Year = col_integer(),
##   Unit = col_character(),
##   Value = col_integer()
## )

FAO1

## # A tibble: 40 x 6
##    Country  Element        Item     Year Unit  Value
##    <chr>    <chr>          <chr>   <int> <chr> <int>
##  1 Cambodia Area harvested Bananas  2007 ha    30000
##  2 Cambodia Area harvested Bananas  2008 ha    32000
##  3 Cambodia Area harvested Bananas  2009 ha    33000
##  4 Cambodia Area harvested Bananas  2010 ha    35002
##  5 Cambodia Area harvested Bananas  2011 ha    32574
##  6 Cambodia Area harvested Bananas  2012 ha    31844
##  7 Cambodia Area harvested Bananas  2013 ha    31757
##  8 Cambodia Area harvested Bananas  2014 ha    31741
##  9 Cambodia Area harvested Bananas  2015 ha    31786
## 10 Cambodia Area harvested Bananas  2016 ha    31875
## # ... with 30 more rows
…
use na = “.” to specify what missing values look like

Say that after import, you notice that you would like to change one of your variable types, you can do that by specifying the variable type for each column. For example, let’s say we want to change year to character:

FAO2 <- read_csv("FAOSTAT_data.csv", col_types = cols(
    Country = col_character(),
    Element = col_character(),
    Item = col_character(),
    Year = col_character(), ### changed year to character
    Unit = col_character(),
    Value = col_integer()
  ))
FAO2

## # A tibble: 40 x 6
##    Country  Element        Item    Year  Unit  Value
##    <chr>    <chr>          <chr>   <chr> <chr> <int>
##  1 Cambodia Area harvested Bananas 2007  ha    30000
##  2 Cambodia Area harvested Bananas 2008  ha    32000
##  3 Cambodia Area harvested Bananas 2009  ha    33000
##  4 Cambodia Area harvested Bananas 2010  ha    35002
##  5 Cambodia Area harvested Bananas 2011  ha    32574
##  6 Cambodia Area harvested Bananas 2012  ha    31844
##  7 Cambodia Area harvested Bananas 2013  ha    31757
##  8 Cambodia Area harvested Bananas 2014  ha    31741
##  9 Cambodia Area harvested Bananas 2015  ha    31786
## 10 Cambodia Area harvested Bananas 2016  ha    31875
## # ... with 30 more rows

Read directly from excel files using the tidyverse package readxl

read_excel() detects file path - read_xlsx() reads directly from .xlsx file

FAOxls <- readxl::read_excel("FAOSTAT_data2.xlsx")
FAOxls

## # A tibble: 40 x 6
##    Country  Element        Item     Year Unit   Value
##    <chr>    <chr>          <chr>   <dbl> <chr>  <dbl>
##  1 Cambodia Area harvested Bananas 2007. ha    30000.
##  2 Cambodia Area harvested Bananas 2008. ha    32000.
##  3 Cambodia Area harvested Bananas 2009. ha    33000.
##  4 Cambodia Area harvested Bananas 2010. ha    35002.
##  5 Cambodia Area harvested Bananas 2011. ha    32574.
##  6 Cambodia Area harvested Bananas 2012. ha    31844.
##  7 Cambodia Area harvested Bananas 2013. ha    31757.
##  8 Cambodia Area harvested Bananas 2014. ha    31741.
##  9 Cambodia Area harvested Bananas 2015. ha    31786.
## 10 Cambodia Area harvested Bananas 2016. ha    31875.
## # ... with 30 more rows
…
## Parsed with column specification:
## cols(
##   Country = col_character(),
##   Element = col_character(),
##   Item = col_character(),
##   Year = col_integer(),
##   Unit = col_character(),
##   Value = col_integer()
## )

MessyFAO2 <- MessyFAO %>% unite(Area,Value,Unit, sep = "_") 
MessyFAO2

## # A tibble: 40 x 5
##    Country  Element        Item     Year Area    
##    <chr>    <chr>          <chr>   <int> <chr>   
##  1 Cambodia Area harvested Bananas  2007 30000_ha
##  2 Cambodia Area harvested Bananas  2008 32000_ha
##  3 Cambodia Area harvested Bananas  2009 33000_ha
##  4 Cambodia Area harvested Bananas  2010 35002_ha
##  5 Cambodia Area harvested Bananas  2011 32574_ha
##  6 Cambodia Area harvested Bananas  2012 31844_ha
##  7 Cambodia Area harvested Bananas  2013 31757_ha
##  8 Cambodia Area harvested Bananas  2014 31741_ha
##  9 Cambodia Area harvested Bananas  2015 31786_ha
## 10 Cambodia Area harvested Bananas  2016 31875_ha
## # ... with 30 more rows

MessyFAO3 <- MessyFAO2 %>% separate(Area, into = c("Value", "Unit"))
MessyFAO3

## # A tibble: 40 x 6
##    Country  Element        Item     Year Value Unit 
##    <chr>    <chr>          <chr>   <int> <chr> <chr>
##  1 Cambodia Area harvested Bananas  2007 30000 ha   
##  2 Cambodia Area harvested Bananas  2008 32000 ha   
##  3 Cambodia Area harvested Bananas  2009 33000 ha   
##  4 Cambodia Area harvested Bananas  2010 35002 ha   
##  5 Cambodia Area harvested Bananas  2011 32574 ha   
##  6 Cambodia Area harvested Bananas  2012 31844 ha   
##  7 Cambodia Area harvested Bananas  2013 31757 ha   
##  8 Cambodia Area harvested Bananas  2014 31741 ha   
##  9 Cambodia Area harvested Bananas  2015 31786 ha   
## 10 Cambodia Area harvested Bananas  2016 31875 ha   
## # ... with 30 more rows
